<mxfile host="app.diagrams.net" modified="2023-04-23T11:19:12.732Z" agent="Mozilla/5.0 (X11; Linux x86_64) AppleWebKit/537.36 (KHTML, like Gecko) Chrome/112.0.0.0 Safari/537.36" etag="CQBFVlZNj2SiQIJ4NJ4P" version="21.2.1" type="gitlab">
  <diagram name="Page-1" id="MK0iJWepzANnLYqHUAQy">
    <mxGraphModel dx="1459" dy="622" grid="1" gridSize="10" guides="1" tooltips="1" connect="1" arrows="1" fold="1" page="1" pageScale="1" pageWidth="1654" pageHeight="1169" background="none" math="0" shadow="0">
      <root>
        <mxCell id="0" />
        <mxCell id="1" parent="0" />
        <mxCell id="WNrmMFyE6qLZgUk3I4w_-161" value="" style="rounded=0;whiteSpace=wrap;html=1;dashed=1;dashPattern=1 4;" parent="1" vertex="1">
          <mxGeometry x="306.81" y="1650" width="1150" height="430" as="geometry" />
        </mxCell>
        <mxCell id="WNrmMFyE6qLZgUk3I4w_-160" value="" style="rounded=0;whiteSpace=wrap;html=1;dashed=1;dashPattern=1 4;" parent="1" vertex="1">
          <mxGeometry x="813.1899999999999" y="1232.25" width="760" height="370" as="geometry" />
        </mxCell>
        <mxCell id="WNrmMFyE6qLZgUk3I4w_-159" value="" style="rounded=0;whiteSpace=wrap;html=1;dashed=1;dashPattern=1 4;" parent="1" vertex="1">
          <mxGeometry x="91.81" y="1210" width="690" height="310" as="geometry" />
        </mxCell>
        <mxCell id="WNrmMFyE6qLZgUk3I4w_-158" value="" style="rounded=0;whiteSpace=wrap;html=1;dashed=1;dashPattern=1 4;" parent="1" vertex="1">
          <mxGeometry x="230" y="710" width="890" height="240" as="geometry" />
        </mxCell>
        <mxCell id="WNrmMFyE6qLZgUk3I4w_-157" value="" style="rounded=0;whiteSpace=wrap;html=1;dashed=1;dashPattern=1 4;movable=1;resizable=1;rotatable=1;deletable=1;editable=1;locked=0;connectable=1;shadow=0;" parent="1" vertex="1">
          <mxGeometry x="630" y="320" width="990" height="320" as="geometry" />
        </mxCell>
        <mxCell id="WNrmMFyE6qLZgUk3I4w_-150" value="" style="rounded=1;whiteSpace=wrap;html=1;dashed=1;dashPattern=12 12;fillColor=#f5f5f5;fontColor=#333333;strokeColor=#666666;movable=1;resizable=1;rotatable=1;deletable=1;editable=1;locked=0;connectable=1;shadow=0;" parent="1" vertex="1">
          <mxGeometry x="1230" y="412.25" width="360" height="202.25" as="geometry" />
        </mxCell>
        <mxCell id="D6vviC0zTcl00wqRqJip-169" value="" style="rounded=1;whiteSpace=wrap;html=1;dashed=1;dashPattern=12 12;fillColor=#f5f5f5;fontColor=#333333;strokeColor=#666666;movable=1;resizable=1;rotatable=1;deletable=1;editable=1;locked=0;connectable=1;shadow=0;" parent="1" vertex="1">
          <mxGeometry x="680" y="362.5" width="490" height="260" as="geometry" />
        </mxCell>
        <mxCell id="D6vviC0zTcl00wqRqJip-19" value="&lt;h1&gt;Image classification&lt;/h1&gt;&lt;div&gt;&lt;ul&gt;&lt;li&gt;img will be classified and its class is stored in the user info db&lt;/li&gt;&lt;/ul&gt;&lt;/div&gt;" style="text;html=1;strokeColor=none;fillColor=none;spacing=5;spacingTop=-20;whiteSpace=wrap;overflow=hidden;rounded=0;" parent="1" vertex="1">
          <mxGeometry x="108.81" y="1215" width="180" height="135" as="geometry" />
        </mxCell>
        <mxCell id="D6vviC0zTcl00wqRqJip-41" value="API gateway" style="sketch=0;points=[[0,0,0],[0.25,0,0],[0.5,0,0],[0.75,0,0],[1,0,0],[0,1,0],[0.25,1,0],[0.5,1,0],[0.75,1,0],[1,1,0],[0,0.25,0],[0,0.5,0],[0,0.75,0],[1,0.25,0],[1,0.5,0],[1,0.75,0]];outlineConnect=0;fontColor=#232F3E;gradientColor=#FF4F8B;gradientDirection=north;fillColor=#BC1356;strokeColor=#ffffff;dashed=0;verticalLabelPosition=bottom;verticalAlign=top;align=center;html=1;fontSize=12;fontStyle=0;aspect=fixed;shape=mxgraph.aws4.resourceIcon;resIcon=mxgraph.aws4.api_gateway;" parent="1" vertex="1">
          <mxGeometry x="223.81" y="1372.25" width="90" height="90" as="geometry" />
        </mxCell>
        <mxCell id="D6vviC0zTcl00wqRqJip-42" value="image classifier" style="sketch=0;outlineConnect=0;fontColor=#232F3E;gradientColor=none;fillColor=#D45B07;strokeColor=none;dashed=0;verticalLabelPosition=bottom;verticalAlign=top;align=center;html=1;fontSize=12;fontStyle=0;aspect=fixed;pointerEvents=1;shape=mxgraph.aws4.lambda_function;" parent="1" vertex="1">
          <mxGeometry x="455.65" y="1387.75" width="60" height="60" as="geometry" />
        </mxCell>
        <mxCell id="D6vviC0zTcl00wqRqJip-43" value="" style="endArrow=classic;html=1;rounded=0;" parent="1" source="D6vviC0zTcl00wqRqJip-41" target="D6vviC0zTcl00wqRqJip-42" edge="1">
          <mxGeometry width="50" height="50" relative="1" as="geometry">
            <mxPoint x="373.81" y="1452.25" as="sourcePoint" />
            <mxPoint x="473.81" y="1282.25" as="targetPoint" />
          </mxGeometry>
        </mxCell>
        <mxCell id="D6vviC0zTcl00wqRqJip-44" value="/app/upload" style="edgeLabel;html=1;align=center;verticalAlign=middle;resizable=0;points=[];" parent="D6vviC0zTcl00wqRqJip-43" vertex="1" connectable="0">
          <mxGeometry x="-0.1726" y="1" relative="1" as="geometry">
            <mxPoint as="offset" />
          </mxGeometry>
        </mxCell>
        <mxCell id="D6vviC0zTcl00wqRqJip-45" value="img as payload" style="sketch=0;outlineConnect=0;fontColor=#232F3E;gradientColor=none;fillColor=#D45B07;strokeColor=none;dashed=0;verticalLabelPosition=bottom;verticalAlign=top;align=center;html=1;fontSize=12;fontStyle=0;aspect=fixed;pointerEvents=1;shape=mxgraph.aws4.container_registry_image;" parent="1" vertex="1">
          <mxGeometry x="362.39" y="1350" width="30" height="30" as="geometry" />
        </mxCell>
        <mxCell id="D6vviC0zTcl00wqRqJip-49" value="User details" style="sketch=0;points=[[0,0,0],[0.25,0,0],[0.5,0,0],[0.75,0,0],[1,0,0],[0,1,0],[0.25,1,0],[0.5,1,0],[0.75,1,0],[1,1,0],[0,0.25,0],[0,0.5,0],[0,0.75,0],[1,0.25,0],[1,0.5,0],[1,0.75,0]];outlineConnect=0;fontColor=#232F3E;gradientColor=#4D72F3;gradientDirection=north;fillColor=#3334B9;strokeColor=#ffffff;dashed=0;verticalLabelPosition=bottom;verticalAlign=top;align=center;html=1;fontSize=12;fontStyle=0;aspect=fixed;shape=mxgraph.aws4.resourceIcon;resIcon=mxgraph.aws4.aurora;" parent="1" vertex="1">
          <mxGeometry x="693.81" y="1394.5" width="45.5" height="45.5" as="geometry" />
        </mxCell>
        <mxCell id="D6vviC0zTcl00wqRqJip-51" value="" style="endArrow=classic;html=1;rounded=0;entryX=0;entryY=0.5;entryDx=0;entryDy=0;entryPerimeter=0;" parent="1" source="D6vviC0zTcl00wqRqJip-42" target="D6vviC0zTcl00wqRqJip-49" edge="1">
          <mxGeometry width="50" height="50" relative="1" as="geometry">
            <mxPoint x="563.81" y="1442.25" as="sourcePoint" />
            <mxPoint x="613.81" y="1392.25" as="targetPoint" />
          </mxGeometry>
        </mxCell>
        <mxCell id="D6vviC0zTcl00wqRqJip-52" value="Writes&lt;br&gt;the class of image&lt;br&gt;been classified" style="edgeLabel;html=1;align=center;verticalAlign=middle;resizable=0;points=[];" parent="D6vviC0zTcl00wqRqJip-51" vertex="1" connectable="0">
          <mxGeometry x="-0.141" y="-1" relative="1" as="geometry">
            <mxPoint as="offset" />
          </mxGeometry>
        </mxCell>
        <mxCell id="D6vviC0zTcl00wqRqJip-53" value="" style="endArrow=classic;html=1;rounded=0;entryX=0.002;entryY=0.417;entryDx=0;entryDy=0;entryPerimeter=0;" parent="1" target="D6vviC0zTcl00wqRqJip-41" edge="1">
          <mxGeometry width="50" height="50" relative="1" as="geometry">
            <mxPoint x="133.81" y="1412.25" as="sourcePoint" />
            <mxPoint x="223.81" y="1432.25" as="targetPoint" />
          </mxGeometry>
        </mxCell>
        <mxCell id="D6vviC0zTcl00wqRqJip-54" value="/app/upload" style="edgeLabel;html=1;align=center;verticalAlign=middle;resizable=0;points=[];" parent="D6vviC0zTcl00wqRqJip-53" vertex="1" connectable="0">
          <mxGeometry x="-0.2321" y="1" relative="1" as="geometry">
            <mxPoint as="offset" />
          </mxGeometry>
        </mxCell>
        <mxCell id="D6vviC0zTcl00wqRqJip-79" value="&lt;h1&gt;Login &amp;amp; Signup&lt;/h1&gt;&lt;div&gt;&lt;ul&gt;&lt;li&gt;login&lt;/li&gt;&lt;ul&gt;&lt;li&gt;password &amp;amp; username&lt;/li&gt;&lt;/ul&gt;&lt;li&gt;&lt;span style=&quot;font-size: 12px;&quot;&gt;signup&lt;/span&gt;&lt;/li&gt;&lt;ul&gt;&lt;li&gt;&lt;span style=&quot;font-size: 12px;&quot;&gt;all user details&lt;/span&gt;&lt;/li&gt;&lt;/ul&gt;&lt;/ul&gt;&lt;/div&gt;" style="text;html=1;strokeColor=none;fillColor=none;spacing=5;spacingTop=-20;whiteSpace=wrap;overflow=hidden;rounded=0;" parent="1" vertex="1">
          <mxGeometry x="260" y="710" width="190" height="160" as="geometry" />
        </mxCell>
        <mxCell id="D6vviC0zTcl00wqRqJip-80" value="API gateway" style="sketch=0;points=[[0,0,0],[0.25,0,0],[0.5,0,0],[0.75,0,0],[1,0,0],[0,1,0],[0.25,1,0],[0.5,1,0],[0.75,1,0],[1,1,0],[0,0.25,0],[0,0.5,0],[0,0.75,0],[1,0.25,0],[1,0.5,0],[1,0.75,0]];outlineConnect=0;fontColor=#232F3E;gradientColor=#FF4F8B;gradientDirection=north;fillColor=#BC1356;strokeColor=#ffffff;dashed=0;verticalLabelPosition=bottom;verticalAlign=top;align=center;html=1;fontSize=12;fontStyle=0;aspect=fixed;shape=mxgraph.aws4.resourceIcon;resIcon=mxgraph.aws4.api_gateway;" parent="1" vertex="1">
          <mxGeometry x="532" y="825" width="90" height="90" as="geometry" />
        </mxCell>
        <mxCell id="D6vviC0zTcl00wqRqJip-83" value="" style="endArrow=classic;html=1;rounded=0;entryX=0;entryY=0.111;entryDx=0;entryDy=0;entryPerimeter=0;" parent="1" edge="1">
          <mxGeometry width="50" height="50" relative="1" as="geometry">
            <mxPoint x="442" y="851" as="sourcePoint" />
            <mxPoint x="532" y="850.99" as="targetPoint" />
          </mxGeometry>
        </mxCell>
        <mxCell id="D6vviC0zTcl00wqRqJip-84" value="/login&lt;br&gt;or&lt;br&gt;/signup" style="edgeLabel;html=1;align=center;verticalAlign=middle;resizable=0;points=[];" parent="D6vviC0zTcl00wqRqJip-83" vertex="1" connectable="0">
          <mxGeometry x="-0.2479" y="1" relative="1" as="geometry">
            <mxPoint as="offset" />
          </mxGeometry>
        </mxCell>
        <mxCell id="D6vviC0zTcl00wqRqJip-92" style="edgeStyle=orthogonalEdgeStyle;rounded=0;orthogonalLoop=1;jettySize=auto;html=1;endArrow=block;endFill=1;startArrow=block;startFill=1;" parent="1" source="D6vviC0zTcl00wqRqJip-87" target="D6vviC0zTcl00wqRqJip-90" edge="1">
          <mxGeometry relative="1" as="geometry" />
        </mxCell>
        <mxCell id="D6vviC0zTcl00wqRqJip-93" value="user info store" style="edgeLabel;html=1;align=center;verticalAlign=middle;resizable=0;points=[];" parent="D6vviC0zTcl00wqRqJip-92" vertex="1" connectable="0">
          <mxGeometry x="-0.213" relative="1" as="geometry">
            <mxPoint x="12" as="offset" />
          </mxGeometry>
        </mxCell>
        <mxCell id="D6vviC0zTcl00wqRqJip-87" value="user registration&lt;br&gt;&amp;amp; login" style="sketch=0;outlineConnect=0;fontColor=#232F3E;gradientColor=none;fillColor=#D45B07;strokeColor=none;dashed=0;verticalLabelPosition=bottom;verticalAlign=top;align=center;html=1;fontSize=12;fontStyle=0;aspect=fixed;pointerEvents=1;shape=mxgraph.aws4.lambda_function;" parent="1" vertex="1">
          <mxGeometry x="778" y="840" width="60" height="60" as="geometry" />
        </mxCell>
        <mxCell id="D6vviC0zTcl00wqRqJip-88" value="" style="endArrow=classic;html=1;rounded=0;exitX=1;exitY=0.5;exitDx=0;exitDy=0;exitPerimeter=0;" parent="1" source="D6vviC0zTcl00wqRqJip-80" target="D6vviC0zTcl00wqRqJip-87" edge="1">
          <mxGeometry width="50" height="50" relative="1" as="geometry">
            <mxPoint x="648" y="845" as="sourcePoint" />
            <mxPoint x="748" y="900" as="targetPoint" />
          </mxGeometry>
        </mxCell>
        <mxCell id="D6vviC0zTcl00wqRqJip-89" value="/login &amp;amp; /signup" style="edgeLabel;html=1;align=center;verticalAlign=middle;resizable=0;points=[];" parent="D6vviC0zTcl00wqRqJip-88" vertex="1" connectable="0">
          <mxGeometry x="-0.1513" y="-1" relative="1" as="geometry">
            <mxPoint as="offset" />
          </mxGeometry>
        </mxCell>
        <mxCell id="D6vviC0zTcl00wqRqJip-90" value="User details" style="sketch=0;points=[[0,0,0],[0.25,0,0],[0.5,0,0],[0.75,0,0],[1,0,0],[0,1,0],[0.25,1,0],[0.5,1,0],[0.75,1,0],[1,1,0],[0,0.25,0],[0,0.5,0],[0,0.75,0],[1,0.25,0],[1,0.5,0],[1,0.75,0]];outlineConnect=0;fontColor=#232F3E;gradientColor=#4D72F3;gradientDirection=north;fillColor=#3334B9;strokeColor=#ffffff;dashed=0;verticalLabelPosition=bottom;verticalAlign=top;align=center;html=1;fontSize=12;fontStyle=0;aspect=fixed;shape=mxgraph.aws4.resourceIcon;resIcon=mxgraph.aws4.aurora;" parent="1" vertex="1">
          <mxGeometry x="960" y="847.25" width="45.5" height="45.5" as="geometry" />
        </mxCell>
        <mxCell id="D6vviC0zTcl00wqRqJip-94" value="SQL datastore" style="text;html=1;align=center;verticalAlign=middle;resizable=0;points=[];autosize=1;strokeColor=#d6b656;fillColor=#fff2cc;" parent="1" vertex="1">
          <mxGeometry x="928" y="810" width="100" height="30" as="geometry" />
        </mxCell>
        <mxCell id="D6vviC0zTcl00wqRqJip-95" value="Auth0 access token" style="sketch=0;pointerEvents=1;shadow=0;dashed=0;html=1;strokeColor=none;fillColor=#505050;labelPosition=center;verticalLabelPosition=bottom;verticalAlign=top;outlineConnect=0;align=center;shape=mxgraph.office.security.token;" parent="1" vertex="1">
          <mxGeometry x="360.97" y="1432.25" width="32.84" height="40" as="geometry" />
        </mxCell>
        <mxCell id="D6vviC0zTcl00wqRqJip-96" value="UserID &lt;br&gt;(primary key)" style="text;html=1;align=center;verticalAlign=middle;resizable=0;points=[];autosize=1;strokeColor=#9673a6;fillColor=#e1d5e7;" parent="1" vertex="1">
          <mxGeometry x="1018" y="850" width="90" height="40" as="geometry" />
        </mxCell>
        <mxCell id="D6vviC0zTcl00wqRqJip-97" value="More info about access token&lt;br&gt;&lt;a href=&quot;https://auth0.com/docs/secure/tokens#access-tokens&quot;&gt;Refer&lt;/a&gt;" style="text;html=1;align=center;verticalAlign=middle;resizable=0;points=[];autosize=1;strokeColor=#82b366;fillColor=#d5e8d4;" parent="1" vertex="1">
          <mxGeometry x="1153.63" y="780" width="180" height="40" as="geometry" />
        </mxCell>
        <mxCell id="D6vviC0zTcl00wqRqJip-98" value="" style="endArrow=classic;html=1;rounded=0;exitX=0;exitY=0.75;exitDx=0;exitDy=0;exitPerimeter=0;" parent="1" source="D6vviC0zTcl00wqRqJip-80" edge="1">
          <mxGeometry width="50" height="50" relative="1" as="geometry">
            <mxPoint x="528" y="875" as="sourcePoint" />
            <mxPoint x="438" y="895" as="targetPoint" />
          </mxGeometry>
        </mxCell>
        <mxCell id="D6vviC0zTcl00wqRqJip-99" value="access&lt;br&gt;token" style="edgeLabel;html=1;align=center;verticalAlign=middle;resizable=0;points=[];" parent="D6vviC0zTcl00wqRqJip-98" vertex="1" connectable="0">
          <mxGeometry x="0.4539" relative="1" as="geometry">
            <mxPoint x="18" y="-2" as="offset" />
          </mxGeometry>
        </mxCell>
        <mxCell id="D6vviC0zTcl00wqRqJip-126" value="User" style="shape=table;startSize=30;container=1;collapsible=1;childLayout=tableLayout;fixedRows=1;rowLines=0;fontStyle=1;align=center;resizeLast=1;html=1;whiteSpace=wrap;movable=1;resizable=1;rotatable=1;deletable=1;editable=1;locked=0;connectable=1;shadow=0;" parent="1" vertex="1">
          <mxGeometry x="770" y="392.5" width="150" height="150" as="geometry" />
        </mxCell>
        <mxCell id="D6vviC0zTcl00wqRqJip-127" value="" style="shape=tableRow;horizontal=0;startSize=0;swimlaneHead=0;swimlaneBody=0;fillColor=none;collapsible=0;dropTarget=0;points=[[0,0.5],[1,0.5]];portConstraint=eastwest;top=0;left=0;right=0;bottom=0;html=1;movable=1;resizable=1;rotatable=1;deletable=1;editable=1;locked=0;connectable=1;shadow=0;" parent="D6vviC0zTcl00wqRqJip-126" vertex="1">
          <mxGeometry y="30" width="150" height="30" as="geometry" />
        </mxCell>
        <mxCell id="D6vviC0zTcl00wqRqJip-128" value="PK,FK1" style="shape=partialRectangle;connectable=1;fillColor=none;top=0;left=0;bottom=0;right=0;fontStyle=1;overflow=hidden;html=1;whiteSpace=wrap;movable=1;resizable=1;rotatable=1;deletable=1;editable=1;locked=0;shadow=0;" parent="D6vviC0zTcl00wqRqJip-127" vertex="1">
          <mxGeometry width="60" height="30" as="geometry">
            <mxRectangle width="60" height="30" as="alternateBounds" />
          </mxGeometry>
        </mxCell>
        <mxCell id="D6vviC0zTcl00wqRqJip-129" value="userid" style="shape=partialRectangle;connectable=1;fillColor=none;top=0;left=0;bottom=0;right=0;align=left;spacingLeft=6;fontStyle=5;overflow=hidden;html=1;whiteSpace=wrap;movable=1;resizable=1;rotatable=1;deletable=1;editable=1;locked=0;shadow=0;" parent="D6vviC0zTcl00wqRqJip-127" vertex="1">
          <mxGeometry x="60" width="90" height="30" as="geometry">
            <mxRectangle width="90" height="30" as="alternateBounds" />
          </mxGeometry>
        </mxCell>
        <mxCell id="D6vviC0zTcl00wqRqJip-130" value="" style="shape=tableRow;horizontal=0;startSize=0;swimlaneHead=0;swimlaneBody=0;fillColor=none;collapsible=0;dropTarget=0;points=[[0,0.5],[1,0.5]];portConstraint=eastwest;top=0;left=0;right=0;bottom=1;html=1;movable=1;resizable=1;rotatable=1;deletable=1;editable=1;locked=0;connectable=1;shadow=0;" parent="D6vviC0zTcl00wqRqJip-126" vertex="1">
          <mxGeometry y="60" width="150" height="30" as="geometry" />
        </mxCell>
        <mxCell id="D6vviC0zTcl00wqRqJip-131" value="FK2" style="shape=partialRectangle;connectable=1;fillColor=none;top=0;left=0;bottom=0;right=0;fontStyle=1;overflow=hidden;html=1;whiteSpace=wrap;movable=1;resizable=1;rotatable=1;deletable=1;editable=1;locked=0;shadow=0;" parent="D6vviC0zTcl00wqRqJip-130" vertex="1">
          <mxGeometry width="60" height="30" as="geometry">
            <mxRectangle width="60" height="30" as="alternateBounds" />
          </mxGeometry>
        </mxCell>
        <mxCell id="D6vviC0zTcl00wqRqJip-132" value="soilid" style="shape=partialRectangle;connectable=1;fillColor=none;top=0;left=0;bottom=0;right=0;align=left;spacingLeft=6;fontStyle=5;overflow=hidden;html=1;whiteSpace=wrap;movable=1;resizable=1;rotatable=1;deletable=1;editable=1;locked=0;shadow=0;" parent="D6vviC0zTcl00wqRqJip-130" vertex="1">
          <mxGeometry x="60" width="90" height="30" as="geometry">
            <mxRectangle width="90" height="30" as="alternateBounds" />
          </mxGeometry>
        </mxCell>
        <mxCell id="D6vviC0zTcl00wqRqJip-133" value="" style="shape=tableRow;horizontal=0;startSize=0;swimlaneHead=0;swimlaneBody=0;fillColor=none;collapsible=0;dropTarget=0;points=[[0,0.5],[1,0.5]];portConstraint=eastwest;top=0;left=0;right=0;bottom=0;html=1;movable=1;resizable=1;rotatable=1;deletable=1;editable=1;locked=0;connectable=1;shadow=0;" parent="D6vviC0zTcl00wqRqJip-126" vertex="1">
          <mxGeometry y="90" width="150" height="30" as="geometry" />
        </mxCell>
        <mxCell id="D6vviC0zTcl00wqRqJip-134" value="" style="shape=partialRectangle;connectable=1;fillColor=none;top=0;left=0;bottom=0;right=0;editable=1;overflow=hidden;html=1;whiteSpace=wrap;movable=1;resizable=1;rotatable=1;deletable=1;locked=0;shadow=0;" parent="D6vviC0zTcl00wqRqJip-133" vertex="1">
          <mxGeometry width="60" height="30" as="geometry">
            <mxRectangle width="60" height="30" as="alternateBounds" />
          </mxGeometry>
        </mxCell>
        <mxCell id="D6vviC0zTcl00wqRqJip-135" value="name" style="shape=partialRectangle;connectable=1;fillColor=none;top=0;left=0;bottom=0;right=0;align=left;spacingLeft=6;overflow=hidden;html=1;whiteSpace=wrap;movable=1;resizable=1;rotatable=1;deletable=1;editable=1;locked=0;shadow=0;" parent="D6vviC0zTcl00wqRqJip-133" vertex="1">
          <mxGeometry x="60" width="90" height="30" as="geometry">
            <mxRectangle width="90" height="30" as="alternateBounds" />
          </mxGeometry>
        </mxCell>
        <mxCell id="D6vviC0zTcl00wqRqJip-136" value="" style="shape=tableRow;horizontal=0;startSize=0;swimlaneHead=0;swimlaneBody=0;fillColor=none;collapsible=0;dropTarget=0;points=[[0,0.5],[1,0.5]];portConstraint=eastwest;top=0;left=0;right=0;bottom=0;html=1;movable=1;resizable=1;rotatable=1;deletable=1;editable=1;locked=0;connectable=1;shadow=0;" parent="D6vviC0zTcl00wqRqJip-126" vertex="1">
          <mxGeometry y="120" width="150" height="30" as="geometry" />
        </mxCell>
        <mxCell id="D6vviC0zTcl00wqRqJip-137" value="" style="shape=partialRectangle;connectable=1;fillColor=none;top=0;left=0;bottom=0;right=0;editable=1;overflow=hidden;html=1;whiteSpace=wrap;movable=1;resizable=1;rotatable=1;deletable=1;locked=0;shadow=0;" parent="D6vviC0zTcl00wqRqJip-136" vertex="1">
          <mxGeometry width="60" height="30" as="geometry">
            <mxRectangle width="60" height="30" as="alternateBounds" />
          </mxGeometry>
        </mxCell>
        <mxCell id="D6vviC0zTcl00wqRqJip-138" value="other" style="shape=partialRectangle;connectable=1;fillColor=none;top=0;left=0;bottom=0;right=0;align=left;spacingLeft=6;overflow=hidden;html=1;whiteSpace=wrap;movable=1;resizable=1;rotatable=1;deletable=1;editable=1;locked=0;shadow=0;" parent="D6vviC0zTcl00wqRqJip-136" vertex="1">
          <mxGeometry x="60" width="90" height="30" as="geometry">
            <mxRectangle width="90" height="30" as="alternateBounds" />
          </mxGeometry>
        </mxCell>
        <mxCell id="D6vviC0zTcl00wqRqJip-153" value="Soil" style="shape=table;startSize=30;container=1;collapsible=1;childLayout=tableLayout;fixedRows=1;rowLines=0;fontStyle=1;align=center;resizeLast=1;html=1;whiteSpace=wrap;movable=1;resizable=1;rotatable=1;deletable=1;editable=1;locked=0;connectable=1;shadow=0;" parent="1" vertex="1">
          <mxGeometry x="1000" y="392.5" width="150" height="140" as="geometry" />
        </mxCell>
        <mxCell id="D6vviC0zTcl00wqRqJip-154" value="" style="shape=tableRow;horizontal=0;startSize=0;swimlaneHead=0;swimlaneBody=0;fillColor=none;collapsible=0;dropTarget=0;points=[[0,0.5],[1,0.5]];portConstraint=eastwest;top=0;left=0;right=0;bottom=0;html=1;movable=1;resizable=1;rotatable=1;deletable=1;editable=1;locked=0;connectable=1;shadow=0;" parent="D6vviC0zTcl00wqRqJip-153" vertex="1">
          <mxGeometry y="30" width="150" height="30" as="geometry" />
        </mxCell>
        <mxCell id="D6vviC0zTcl00wqRqJip-155" value="PK" style="shape=partialRectangle;connectable=1;fillColor=none;top=0;left=0;bottom=0;right=0;fontStyle=1;overflow=hidden;html=1;whiteSpace=wrap;movable=1;resizable=1;rotatable=1;deletable=1;editable=1;locked=0;shadow=0;" parent="D6vviC0zTcl00wqRqJip-154" vertex="1">
          <mxGeometry width="60" height="30" as="geometry">
            <mxRectangle width="60" height="30" as="alternateBounds" />
          </mxGeometry>
        </mxCell>
        <mxCell id="D6vviC0zTcl00wqRqJip-156" value="soilid" style="shape=partialRectangle;connectable=1;fillColor=none;top=0;left=0;bottom=0;right=0;align=left;spacingLeft=6;fontStyle=5;overflow=hidden;html=1;whiteSpace=wrap;movable=1;resizable=1;rotatable=1;deletable=1;editable=1;locked=0;shadow=0;" parent="D6vviC0zTcl00wqRqJip-154" vertex="1">
          <mxGeometry x="60" width="90" height="30" as="geometry">
            <mxRectangle width="90" height="30" as="alternateBounds" />
          </mxGeometry>
        </mxCell>
        <mxCell id="D6vviC0zTcl00wqRqJip-157" value="" style="shape=tableRow;horizontal=0;startSize=0;swimlaneHead=0;swimlaneBody=0;fillColor=none;collapsible=0;dropTarget=0;points=[[0,0.5],[1,0.5]];portConstraint=eastwest;top=0;left=0;right=0;bottom=1;html=1;movable=1;resizable=1;rotatable=1;deletable=1;editable=1;locked=0;connectable=1;shadow=0;" parent="D6vviC0zTcl00wqRqJip-153" vertex="1">
          <mxGeometry y="60" width="150" height="20" as="geometry" />
        </mxCell>
        <mxCell id="D6vviC0zTcl00wqRqJip-158" value="" style="shape=partialRectangle;connectable=1;fillColor=none;top=0;left=0;bottom=0;right=0;fontStyle=1;overflow=hidden;html=1;whiteSpace=wrap;movable=1;resizable=1;rotatable=1;deletable=1;editable=1;locked=0;shadow=0;" parent="D6vviC0zTcl00wqRqJip-157" vertex="1">
          <mxGeometry width="60" height="20" as="geometry">
            <mxRectangle width="60" height="20" as="alternateBounds" />
          </mxGeometry>
        </mxCell>
        <mxCell id="D6vviC0zTcl00wqRqJip-159" value="" style="shape=partialRectangle;connectable=1;fillColor=none;top=0;left=0;bottom=0;right=0;align=left;spacingLeft=6;fontStyle=5;overflow=hidden;html=1;whiteSpace=wrap;movable=1;resizable=1;rotatable=1;deletable=1;editable=1;locked=0;shadow=0;" parent="D6vviC0zTcl00wqRqJip-157" vertex="1">
          <mxGeometry x="60" width="90" height="20" as="geometry">
            <mxRectangle width="90" height="20" as="alternateBounds" />
          </mxGeometry>
        </mxCell>
        <mxCell id="D6vviC0zTcl00wqRqJip-160" value="" style="shape=tableRow;horizontal=0;startSize=0;swimlaneHead=0;swimlaneBody=0;fillColor=none;collapsible=0;dropTarget=0;points=[[0,0.5],[1,0.5]];portConstraint=eastwest;top=0;left=0;right=0;bottom=0;html=1;movable=1;resizable=1;rotatable=1;deletable=1;editable=1;locked=0;connectable=1;shadow=0;" parent="D6vviC0zTcl00wqRqJip-153" vertex="1">
          <mxGeometry y="80" width="150" height="30" as="geometry" />
        </mxCell>
        <mxCell id="D6vviC0zTcl00wqRqJip-161" value="" style="shape=partialRectangle;connectable=1;fillColor=none;top=0;left=0;bottom=0;right=0;editable=1;overflow=hidden;html=1;whiteSpace=wrap;movable=1;resizable=1;rotatable=1;deletable=1;locked=0;shadow=0;" parent="D6vviC0zTcl00wqRqJip-160" vertex="1">
          <mxGeometry width="60" height="30" as="geometry">
            <mxRectangle width="60" height="30" as="alternateBounds" />
          </mxGeometry>
        </mxCell>
        <mxCell id="D6vviC0zTcl00wqRqJip-162" value="name" style="shape=partialRectangle;connectable=1;fillColor=none;top=0;left=0;bottom=0;right=0;align=left;spacingLeft=6;overflow=hidden;html=1;whiteSpace=wrap;movable=1;resizable=1;rotatable=1;deletable=1;editable=1;locked=0;shadow=0;" parent="D6vviC0zTcl00wqRqJip-160" vertex="1">
          <mxGeometry x="60" width="90" height="30" as="geometry">
            <mxRectangle width="90" height="30" as="alternateBounds" />
          </mxGeometry>
        </mxCell>
        <mxCell id="D6vviC0zTcl00wqRqJip-163" value="" style="shape=tableRow;horizontal=0;startSize=0;swimlaneHead=0;swimlaneBody=0;fillColor=none;collapsible=0;dropTarget=0;points=[[0,0.5],[1,0.5]];portConstraint=eastwest;top=0;left=0;right=0;bottom=0;html=1;movable=1;resizable=1;rotatable=1;deletable=1;editable=1;locked=0;connectable=1;shadow=0;" parent="D6vviC0zTcl00wqRqJip-153" vertex="1">
          <mxGeometry y="110" width="150" height="30" as="geometry" />
        </mxCell>
        <mxCell id="D6vviC0zTcl00wqRqJip-164" value="" style="shape=partialRectangle;connectable=1;fillColor=none;top=0;left=0;bottom=0;right=0;editable=1;overflow=hidden;html=1;whiteSpace=wrap;movable=1;resizable=1;rotatable=1;deletable=1;locked=0;shadow=0;" parent="D6vviC0zTcl00wqRqJip-163" vertex="1">
          <mxGeometry width="60" height="30" as="geometry">
            <mxRectangle width="60" height="30" as="alternateBounds" />
          </mxGeometry>
        </mxCell>
        <mxCell id="D6vviC0zTcl00wqRqJip-165" value="" style="shape=partialRectangle;connectable=1;fillColor=none;top=0;left=0;bottom=0;right=0;align=left;spacingLeft=6;overflow=hidden;html=1;whiteSpace=wrap;movable=1;resizable=1;rotatable=1;deletable=1;editable=1;locked=0;shadow=0;" parent="D6vviC0zTcl00wqRqJip-163" vertex="1">
          <mxGeometry x="60" width="90" height="30" as="geometry">
            <mxRectangle width="90" height="30" as="alternateBounds" />
          </mxGeometry>
        </mxCell>
        <mxCell id="D6vviC0zTcl00wqRqJip-167" style="edgeStyle=orthogonalEdgeStyle;rounded=0;orthogonalLoop=1;jettySize=auto;html=1;entryX=0;entryY=0.5;entryDx=0;entryDy=0;movable=1;resizable=1;rotatable=1;deletable=1;editable=1;locked=0;connectable=1;shadow=0;" parent="1" source="D6vviC0zTcl00wqRqJip-130" target="D6vviC0zTcl00wqRqJip-154" edge="1">
          <mxGeometry relative="1" as="geometry" />
        </mxCell>
        <mxCell id="D6vviC0zTcl00wqRqJip-168" value="User details" style="sketch=0;points=[[0,0,0],[0.25,0,0],[0.5,0,0],[0.75,0,0],[1,0,0],[0,1,0],[0.25,1,0],[0.5,1,0],[0.75,1,0],[1,1,0],[0,0.25,0],[0,0.5,0],[0,0.75,0],[1,0.25,0],[1,0.5,0],[1,0.75,0]];outlineConnect=0;fontColor=#232F3E;gradientColor=#4D72F3;gradientDirection=north;fillColor=#3334B9;strokeColor=#ffffff;dashed=0;verticalLabelPosition=bottom;verticalAlign=top;align=center;html=1;fontSize=12;fontStyle=0;aspect=fixed;shape=mxgraph.aws4.resourceIcon;resIcon=mxgraph.aws4.aurora;movable=1;resizable=1;rotatable=1;deletable=1;editable=1;locked=0;connectable=1;shadow=0;" parent="1" vertex="1">
          <mxGeometry x="660" y="342.5" width="45.5" height="45.5" as="geometry" />
        </mxCell>
        <mxCell id="WNrmMFyE6qLZgUk3I4w_-17" value="" style="html=1;verticalLabelPosition=bottom;align=center;labelBackgroundColor=#ffffff;verticalAlign=top;strokeWidth=2;strokeColor=#0080F0;shadow=0;dashed=0;shape=mxgraph.ios7.icons.smartphone;" parent="1" vertex="1">
          <mxGeometry x="113.81" y="1402.25" width="18" height="30" as="geometry" />
        </mxCell>
        <mxCell id="WNrmMFyE6qLZgUk3I4w_-18" value="" style="html=1;verticalLabelPosition=bottom;align=center;labelBackgroundColor=#ffffff;verticalAlign=top;strokeWidth=2;strokeColor=#0080F0;shadow=0;dashed=0;shape=mxgraph.ios7.icons.smartphone;" parent="1" vertex="1">
          <mxGeometry x="410" y="855" width="18" height="30" as="geometry" />
        </mxCell>
        <mxCell id="WNrmMFyE6qLZgUk3I4w_-20" value="&lt;h1&gt;Live Metrics&lt;/h1&gt;&lt;div&gt;&lt;ul&gt;&lt;li&gt;data from sensors&lt;/li&gt;&lt;li&gt;&lt;font color=&quot;#cc0066&quot;&gt;&lt;i&gt;(optional)&lt;/i&gt; &lt;/font&gt;stage&lt;/li&gt;&lt;ul&gt;&lt;li&gt;may get pruned&lt;/li&gt;&lt;/ul&gt;&lt;/ul&gt;&lt;/div&gt;" style="text;html=1;strokeColor=none;fillColor=none;spacing=5;spacingTop=-20;whiteSpace=wrap;overflow=hidden;rounded=0;" parent="1" vertex="1">
          <mxGeometry x="900.9399999999999" y="1242.25" width="180" height="135" as="geometry" />
        </mxCell>
        <mxCell id="WNrmMFyE6qLZgUk3I4w_-21" value="API gateway" style="sketch=0;points=[[0,0,0],[0.25,0,0],[0.5,0,0],[0.75,0,0],[1,0,0],[0,1,0],[0.25,1,0],[0.5,1,0],[0.75,1,0],[1,1,0],[0,0.25,0],[0,0.5,0],[0,0.75,0],[1,0.25,0],[1,0.5,0],[1,0.75,0]];outlineConnect=0;fontColor=#232F3E;gradientColor=#FF4F8B;gradientDirection=north;fillColor=#BC1356;strokeColor=#ffffff;dashed=0;verticalLabelPosition=bottom;verticalAlign=top;align=center;html=1;fontSize=12;fontStyle=0;aspect=fixed;shape=mxgraph.aws4.resourceIcon;resIcon=mxgraph.aws4.api_gateway;" parent="1" vertex="1">
          <mxGeometry x="1035.94" y="1394.5" width="90" height="90" as="geometry" />
        </mxCell>
        <mxCell id="WNrmMFyE6qLZgUk3I4w_-22" value="metrics transformer" style="sketch=0;outlineConnect=0;fontColor=#232F3E;gradientColor=none;fillColor=#D45B07;strokeColor=none;dashed=0;verticalLabelPosition=bottom;verticalAlign=top;align=center;html=1;fontSize=12;fontStyle=0;aspect=fixed;pointerEvents=1;shape=mxgraph.aws4.lambda_function;" parent="1" vertex="1">
          <mxGeometry x="1267.78" y="1410" width="60" height="60" as="geometry" />
        </mxCell>
        <mxCell id="WNrmMFyE6qLZgUk3I4w_-23" value="" style="endArrow=classic;html=1;rounded=0;" parent="1" source="WNrmMFyE6qLZgUk3I4w_-21" target="WNrmMFyE6qLZgUk3I4w_-22" edge="1">
          <mxGeometry width="50" height="50" relative="1" as="geometry">
            <mxPoint x="1185.94" y="1474.5" as="sourcePoint" />
            <mxPoint x="1285.94" y="1304.5" as="targetPoint" />
          </mxGeometry>
        </mxCell>
        <mxCell id="WNrmMFyE6qLZgUk3I4w_-24" value="/app/live" style="edgeLabel;html=1;align=center;verticalAlign=middle;resizable=0;points=[];" parent="WNrmMFyE6qLZgUk3I4w_-23" vertex="1" connectable="0">
          <mxGeometry x="-0.1726" y="1" relative="1" as="geometry">
            <mxPoint as="offset" />
          </mxGeometry>
        </mxCell>
        <mxCell id="WNrmMFyE6qLZgUk3I4w_-27" value="" style="endArrow=classic;html=1;rounded=0;entryX=0;entryY=0.5;entryDx=0;entryDy=0;entryPerimeter=0;" parent="1" source="WNrmMFyE6qLZgUk3I4w_-22" edge="1">
          <mxGeometry width="50" height="50" relative="1" as="geometry">
            <mxPoint x="1375.94" y="1464.5" as="sourcePoint" />
            <mxPoint x="1505.94" y="1439.5" as="targetPoint" />
          </mxGeometry>
        </mxCell>
        <mxCell id="WNrmMFyE6qLZgUk3I4w_-28" value="writes the data&lt;br&gt;from sensors" style="edgeLabel;html=1;align=center;verticalAlign=middle;resizable=0;points=[];" parent="WNrmMFyE6qLZgUk3I4w_-27" vertex="1" connectable="0">
          <mxGeometry x="-0.141" y="-1" relative="1" as="geometry">
            <mxPoint as="offset" />
          </mxGeometry>
        </mxCell>
        <mxCell id="WNrmMFyE6qLZgUk3I4w_-29" value="" style="endArrow=classic;html=1;rounded=0;entryX=0.002;entryY=0.417;entryDx=0;entryDy=0;entryPerimeter=0;" parent="1" target="WNrmMFyE6qLZgUk3I4w_-21" edge="1">
          <mxGeometry width="50" height="50" relative="1" as="geometry">
            <mxPoint x="945.9399999999999" y="1434.5" as="sourcePoint" />
            <mxPoint x="1035.94" y="1454.5" as="targetPoint" />
          </mxGeometry>
        </mxCell>
        <mxCell id="WNrmMFyE6qLZgUk3I4w_-30" value="/app/live" style="edgeLabel;html=1;align=center;verticalAlign=middle;resizable=0;points=[];" parent="WNrmMFyE6qLZgUk3I4w_-29" vertex="1" connectable="0">
          <mxGeometry x="-0.2321" y="1" relative="1" as="geometry">
            <mxPoint as="offset" />
          </mxGeometry>
        </mxCell>
        <mxCell id="WNrmMFyE6qLZgUk3I4w_-31" value="Auth0 access token" style="sketch=0;pointerEvents=1;shadow=0;dashed=0;html=1;strokeColor=#b85450;fillColor=#f8cecc;labelPosition=center;verticalLabelPosition=bottom;verticalAlign=top;outlineConnect=0;align=center;shape=mxgraph.office.security.token;" parent="1" vertex="1">
          <mxGeometry x="1185.94" y="1499.5" width="32.84" height="40" as="geometry" />
        </mxCell>
        <mxCell id="WNrmMFyE6qLZgUk3I4w_-33" value="" style="shape=image;html=1;verticalAlign=top;verticalLabelPosition=bottom;labelBackgroundColor=#ffffff;imageAspect=0;aspect=fixed;image=https://cdn1.iconfinder.com/data/icons/iconoir-vol-3/24/question-mark-128.png" parent="1" vertex="1">
          <mxGeometry x="1204.52" y="1484.5" width="38" height="38" as="geometry" />
        </mxCell>
        <mxCell id="WNrmMFyE6qLZgUk3I4w_-34" value="Soil moisture&lt;br&gt;&amp;amp;&lt;br&gt;Soil mineral" style="sketch=0;outlineConnect=0;fontColor=#232F3E;gradientColor=none;strokeColor=#232F3E;fillColor=#ffffff;dashed=0;verticalLabelPosition=bottom;verticalAlign=top;align=center;html=1;fontSize=12;fontStyle=0;aspect=fixed;shape=mxgraph.aws4.resourceIcon;resIcon=mxgraph.aws4.generic;" parent="1" vertex="1">
          <mxGeometry x="895.9399999999999" y="1402.25" width="60" height="60" as="geometry" />
        </mxCell>
        <mxCell id="WNrmMFyE6qLZgUk3I4w_-38" value="soil data" style="sketch=0;points=[[0,0,0],[0.25,0,0],[0.5,0,0],[0.75,0,0],[1,0,0],[0,1,0],[0.25,1,0],[0.5,1,0],[0.75,1,0],[1,1,0],[0,0.25,0],[0,0.5,0],[0,0.75,0],[1,0.25,0],[1,0.5,0],[1,0.75,0]];outlineConnect=0;fontColor=#232F3E;gradientColor=#4D72F3;gradientDirection=north;fillColor=#3334B9;strokeColor=#ffffff;dashed=0;verticalLabelPosition=bottom;verticalAlign=top;align=center;html=1;fontSize=12;fontStyle=0;aspect=fixed;shape=mxgraph.aws4.resourceIcon;resIcon=mxgraph.aws4.dynamodb;" parent="1" vertex="1">
          <mxGeometry x="1505.94" y="1415.88" width="47.25" height="47.25" as="geometry" />
        </mxCell>
        <mxCell id="WNrmMFyE6qLZgUk3I4w_-39" value="which auth to use for Secure conn??" style="text;html=1;align=center;verticalAlign=middle;resizable=0;points=[];autosize=1;strokeColor=#b85450;fillColor=#f8cecc;" parent="1" vertex="1">
          <mxGeometry x="825.9399999999999" y="1522.5" width="220" height="30" as="geometry" />
        </mxCell>
        <mxCell id="WNrmMFyE6qLZgUk3I4w_-40" value="&lt;h1&gt;Fetch Prediction&lt;/h1&gt;&lt;div&gt;&lt;ul&gt;&lt;li&gt;using image metadata&lt;/li&gt;&lt;ul&gt;&lt;li&gt;class label&lt;/li&gt;&lt;/ul&gt;&lt;li&gt;soil properties&lt;/li&gt;&lt;ul&gt;&lt;li&gt;from metics collected&lt;/li&gt;&lt;/ul&gt;&lt;/ul&gt;&lt;/div&gt;" style="text;html=1;strokeColor=none;fillColor=none;spacing=5;spacingTop=-20;whiteSpace=wrap;overflow=hidden;rounded=0;" parent="1" vertex="1">
          <mxGeometry x="331.81" y="1657.75" width="210" height="135" as="geometry" />
        </mxCell>
        <mxCell id="WNrmMFyE6qLZgUk3I4w_-41" value="API gateway" style="sketch=0;points=[[0,0,0],[0.25,0,0],[0.5,0,0],[0.75,0,0],[1,0,0],[0,1,0],[0.25,1,0],[0.5,1,0],[0.75,1,0],[1,1,0],[0,0.25,0],[0,0.5,0],[0,0.75,0],[1,0.25,0],[1,0.5,0],[1,0.75,0]];outlineConnect=0;fontColor=#232F3E;gradientColor=#FF4F8B;gradientDirection=north;fillColor=#BC1356;strokeColor=#ffffff;dashed=0;verticalLabelPosition=bottom;verticalAlign=top;align=center;html=1;fontSize=12;fontStyle=0;aspect=fixed;shape=mxgraph.aws4.resourceIcon;resIcon=mxgraph.aws4.api_gateway;" parent="1" vertex="1">
          <mxGeometry x="436.81" y="1815" width="90" height="90" as="geometry" />
        </mxCell>
        <mxCell id="WNrmMFyE6qLZgUk3I4w_-43" value="" style="endArrow=classic;html=1;rounded=0;" parent="1" source="WNrmMFyE6qLZgUk3I4w_-41" target="WNrmMFyE6qLZgUk3I4w_-56" edge="1">
          <mxGeometry width="50" height="50" relative="1" as="geometry">
            <mxPoint x="586.81" y="1895" as="sourcePoint" />
            <mxPoint x="668.6506824230567" y="1860.4308261446758" as="targetPoint" />
          </mxGeometry>
        </mxCell>
        <mxCell id="WNrmMFyE6qLZgUk3I4w_-44" value="/app/get-pred" style="edgeLabel;html=1;align=center;verticalAlign=middle;resizable=0;points=[];" parent="WNrmMFyE6qLZgUk3I4w_-43" vertex="1" connectable="0">
          <mxGeometry x="-0.1726" y="1" relative="1" as="geometry">
            <mxPoint as="offset" />
          </mxGeometry>
        </mxCell>
        <mxCell id="WNrmMFyE6qLZgUk3I4w_-49" value="" style="endArrow=classic;html=1;rounded=0;entryX=0.002;entryY=0.417;entryDx=0;entryDy=0;entryPerimeter=0;" parent="1" target="WNrmMFyE6qLZgUk3I4w_-41" edge="1">
          <mxGeometry width="50" height="50" relative="1" as="geometry">
            <mxPoint x="346.81" y="1855" as="sourcePoint" />
            <mxPoint x="436.81" y="1875" as="targetPoint" />
          </mxGeometry>
        </mxCell>
        <mxCell id="WNrmMFyE6qLZgUk3I4w_-50" value="/app/get-pred" style="edgeLabel;html=1;align=center;verticalAlign=middle;resizable=0;points=[];" parent="WNrmMFyE6qLZgUk3I4w_-49" vertex="1" connectable="0">
          <mxGeometry x="-0.2321" y="1" relative="1" as="geometry">
            <mxPoint x="6" as="offset" />
          </mxGeometry>
        </mxCell>
        <mxCell id="WNrmMFyE6qLZgUk3I4w_-51" value="Auth0 access token" style="sketch=0;pointerEvents=1;shadow=0;dashed=0;html=1;strokeColor=none;fillColor=#505050;labelPosition=center;verticalLabelPosition=bottom;verticalAlign=top;outlineConnect=0;align=center;shape=mxgraph.office.security.token;" parent="1" vertex="1">
          <mxGeometry x="587.97" y="1890" width="32.84" height="40" as="geometry" />
        </mxCell>
        <mxCell id="WNrmMFyE6qLZgUk3I4w_-52" value="" style="html=1;verticalLabelPosition=bottom;align=center;labelBackgroundColor=#ffffff;verticalAlign=top;strokeWidth=2;strokeColor=#0080F0;shadow=0;dashed=0;shape=mxgraph.ios7.icons.smartphone;" parent="1" vertex="1">
          <mxGeometry x="316.81" y="1845" width="28" height="55" as="geometry" />
        </mxCell>
        <mxCell id="WNrmMFyE6qLZgUk3I4w_-53" value="Recommender" style="points=[[0,0],[0.25,0],[0.5,0],[0.75,0],[1,0],[1,0.25],[1,0.5],[1,0.75],[1,1],[0.75,1],[0.5,1],[0.25,1],[0,1],[0,0.75],[0,0.5],[0,0.25]];outlineConnect=0;gradientColor=none;html=1;whiteSpace=wrap;fontSize=12;fontStyle=0;container=1;pointerEvents=0;collapsible=0;recursiveResize=0;shape=mxgraph.aws4.group;grIcon=mxgraph.aws4.group_aws_step_functions_workflow;strokeColor=#CD2264;fillColor=none;verticalAlign=top;align=left;spacingLeft=30;fontColor=#CD2264;dashed=0;" parent="1" vertex="1">
          <mxGeometry x="833.81" y="1780" width="280" height="270" as="geometry" />
        </mxCell>
        <mxCell id="WNrmMFyE6qLZgUk3I4w_-61" value="" style="sketch=0;outlineConnect=0;fontColor=#232F3E;gradientColor=none;fillColor=#D45B07;strokeColor=none;dashed=0;verticalLabelPosition=bottom;verticalAlign=top;align=center;html=1;fontSize=12;fontStyle=0;aspect=fixed;pointerEvents=1;shape=mxgraph.aws4.lambda_function;" parent="WNrmMFyE6qLZgUk3I4w_-53" vertex="1">
          <mxGeometry x="23" y="50" width="40" height="40" as="geometry" />
        </mxCell>
        <mxCell id="WNrmMFyE6qLZgUk3I4w_-68" style="edgeStyle=orthogonalEdgeStyle;rounded=0;orthogonalLoop=1;jettySize=auto;html=1;" parent="WNrmMFyE6qLZgUk3I4w_-53" source="WNrmMFyE6qLZgUk3I4w_-62" target="WNrmMFyE6qLZgUk3I4w_-67" edge="1">
          <mxGeometry relative="1" as="geometry" />
        </mxCell>
        <mxCell id="WNrmMFyE6qLZgUk3I4w_-62" value="&lt;i&gt;&lt;font color=&quot;#cc0066&quot;&gt;(optional)&lt;/font&gt;&lt;/i&gt; classification" style="rounded=0;whiteSpace=wrap;html=1;fillColor=none;strokeColor=#FFB570;" parent="WNrmMFyE6qLZgUk3I4w_-53" vertex="1">
          <mxGeometry x="13" y="40" width="257" height="60" as="geometry" />
        </mxCell>
        <mxCell id="WNrmMFyE6qLZgUk3I4w_-66" value="" style="sketch=0;outlineConnect=0;fontColor=#232F3E;gradientColor=none;fillColor=#D45B07;strokeColor=none;dashed=0;verticalLabelPosition=bottom;verticalAlign=top;align=center;html=1;fontSize=12;fontStyle=0;aspect=fixed;pointerEvents=1;shape=mxgraph.aws4.lambda_function;" parent="WNrmMFyE6qLZgUk3I4w_-53" vertex="1">
          <mxGeometry x="23" y="192.5" width="40" height="40" as="geometry" />
        </mxCell>
        <mxCell id="WNrmMFyE6qLZgUk3I4w_-67" value="&lt;i&gt;Analyser&lt;/i&gt;" style="rounded=0;whiteSpace=wrap;html=1;fillColor=none;strokeColor=#FFB570;" parent="WNrmMFyE6qLZgUk3I4w_-53" vertex="1">
          <mxGeometry x="13" y="182.5" width="257" height="60" as="geometry" />
        </mxCell>
        <mxCell id="WNrmMFyE6qLZgUk3I4w_-56" value="recommender" style="sketch=0;outlineConnect=0;fontColor=#232F3E;gradientColor=none;fillColor=#D45B07;strokeColor=none;dashed=0;verticalLabelPosition=bottom;verticalAlign=top;align=center;html=1;fontSize=12;fontStyle=0;aspect=fixed;pointerEvents=1;shape=mxgraph.aws4.lambda_function;" parent="1" vertex="1">
          <mxGeometry x="664.6499999999999" y="1830" width="60" height="60" as="geometry" />
        </mxCell>
        <mxCell id="WNrmMFyE6qLZgUk3I4w_-57" value="" style="endArrow=classic;html=1;rounded=0;startArrow=block;startFill=1;" parent="1" source="WNrmMFyE6qLZgUk3I4w_-56" target="WNrmMFyE6qLZgUk3I4w_-53" edge="1">
          <mxGeometry width="50" height="50" relative="1" as="geometry">
            <mxPoint x="806.81" y="1970" as="sourcePoint" />
            <mxPoint x="876.81" y="1874" as="targetPoint" />
          </mxGeometry>
        </mxCell>
        <mxCell id="WNrmMFyE6qLZgUk3I4w_-77" value="output&lt;br&gt;from&lt;br&gt;analyser" style="edgeLabel;html=1;align=center;verticalAlign=middle;resizable=0;points=[];" parent="WNrmMFyE6qLZgUk3I4w_-57" vertex="1" connectable="0">
          <mxGeometry x="-0.2528" y="2" relative="1" as="geometry">
            <mxPoint as="offset" />
          </mxGeometry>
        </mxCell>
        <mxCell id="WNrmMFyE6qLZgUk3I4w_-64" style="edgeStyle=orthogonalEdgeStyle;rounded=0;orthogonalLoop=1;jettySize=auto;html=1;entryX=0.895;entryY=0;entryDx=0;entryDy=0;entryPerimeter=0;" parent="1" source="WNrmMFyE6qLZgUk3I4w_-59" target="WNrmMFyE6qLZgUk3I4w_-62" edge="1">
          <mxGeometry relative="1" as="geometry" />
        </mxCell>
        <mxCell id="WNrmMFyE6qLZgUk3I4w_-59" value="soil data" style="sketch=0;points=[[0,0,0],[0.25,0,0],[0.5,0,0],[0.75,0,0],[1,0,0],[0,1,0],[0.25,1,0],[0.5,1,0],[0.75,1,0],[1,1,0],[0,0.25,0],[0,0.5,0],[0,0.75,0],[1,0.25,0],[1,0.5,0],[1,0.75,0]];outlineConnect=0;fontColor=#232F3E;gradientColor=#4D72F3;gradientDirection=north;fillColor=#3334B9;strokeColor=#ffffff;dashed=0;verticalLabelPosition=bottom;verticalAlign=top;align=center;html=1;fontSize=12;fontStyle=0;aspect=fixed;shape=mxgraph.aws4.resourceIcon;resIcon=mxgraph.aws4.dynamodb;" parent="1" vertex="1">
          <mxGeometry x="1169.56" y="1710" width="47.25" height="47.25" as="geometry" />
        </mxCell>
        <mxCell id="WNrmMFyE6qLZgUk3I4w_-71" style="edgeStyle=orthogonalEdgeStyle;rounded=0;orthogonalLoop=1;jettySize=auto;html=1;entryX=1.003;entryY=0.619;entryDx=0;entryDy=0;entryPerimeter=0;" parent="1" source="WNrmMFyE6qLZgUk3I4w_-69" target="WNrmMFyE6qLZgUk3I4w_-67" edge="1">
          <mxGeometry relative="1" as="geometry" />
        </mxCell>
        <mxCell id="WNrmMFyE6qLZgUk3I4w_-69" value="weather data&lt;br&gt;from source" style="shape=image;html=1;verticalAlign=top;verticalLabelPosition=bottom;labelBackgroundColor=#ffffff;imageAspect=0;aspect=fixed;image=https://cdn2.iconfinder.com/data/icons/weather-color-2/500/weather-03-128.png" parent="1" vertex="1">
          <mxGeometry x="1234.31" y="1810" width="55" height="55" as="geometry" />
        </mxCell>
        <mxCell id="WNrmMFyE6qLZgUk3I4w_-73" value="" style="endArrow=classic;html=1;rounded=0;fillColor=#d5e8d4;strokeColor=#82b366;" parent="1" edge="1">
          <mxGeometry width="50" height="50" relative="1" as="geometry">
            <mxPoint x="650.3899999999999" y="1830" as="sourcePoint" />
            <mxPoint x="550.3899999999999" y="1830" as="targetPoint" />
          </mxGeometry>
        </mxCell>
        <mxCell id="WNrmMFyE6qLZgUk3I4w_-74" value="Response" style="edgeLabel;html=1;align=center;verticalAlign=middle;resizable=0;points=[];" parent="WNrmMFyE6qLZgUk3I4w_-73" vertex="1" connectable="0">
          <mxGeometry x="0.2012" relative="1" as="geometry">
            <mxPoint as="offset" />
          </mxGeometry>
        </mxCell>
        <mxCell id="WNrmMFyE6qLZgUk3I4w_-76" value="&lt;ul&gt;&lt;li&gt;invokes the step function&lt;/li&gt;&lt;li&gt;formates the response from analyser&lt;/li&gt;&lt;/ul&gt;" style="shape=note;whiteSpace=wrap;html=1;backgroundOutline=1;darkOpacity=0.05;align=left;fillColor=#d5e8d4;strokeColor=#82b366;" parent="1" vertex="1">
          <mxGeometry x="646.81" y="1715" width="162.16" height="100" as="geometry" />
        </mxCell>
        <mxCell id="WNrmMFyE6qLZgUk3I4w_-78" value="IT team for raising tickets&lt;br&gt;&amp;amp;&lt;br&gt;subsequent reponse of sutable error" style="sketch=0;points=[[0,0,0],[0.25,0,0],[0.5,0,0],[0.75,0,0],[1,0,0],[0,1,0],[0.25,1,0],[0.5,1,0],[0.75,1,0],[1,1,0],[0,0.25,0],[0,0.5,0],[0,0.75,0],[1,0.25,0],[1,0.5,0],[1,0.75,0]];outlineConnect=0;fontColor=#232F3E;gradientColor=#FF4F8B;gradientDirection=north;fillColor=#BC1356;strokeColor=#ffffff;dashed=0;verticalLabelPosition=bottom;verticalAlign=top;align=center;html=1;fontSize=12;fontStyle=0;aspect=fixed;shape=mxgraph.aws4.resourceIcon;resIcon=mxgraph.aws4.sns;" parent="1" vertex="1">
          <mxGeometry x="1296.81" y="1940" width="48" height="48" as="geometry" />
        </mxCell>
        <mxCell id="WNrmMFyE6qLZgUk3I4w_-79" style="edgeStyle=orthogonalEdgeStyle;rounded=0;orthogonalLoop=1;jettySize=auto;html=1;entryX=0;entryY=0.75;entryDx=0;entryDy=0;entryPerimeter=0;fillColor=#f8cecc;strokeColor=#b85450;" parent="1" source="WNrmMFyE6qLZgUk3I4w_-62" target="WNrmMFyE6qLZgUk3I4w_-78" edge="1">
          <mxGeometry relative="1" as="geometry" />
        </mxCell>
        <mxCell id="WNrmMFyE6qLZgUk3I4w_-80" value="Error" style="edgeLabel;html=1;align=center;verticalAlign=middle;resizable=0;points=[];" parent="WNrmMFyE6qLZgUk3I4w_-79" vertex="1" connectable="0">
          <mxGeometry x="0.5891" relative="1" as="geometry">
            <mxPoint as="offset" />
          </mxGeometry>
        </mxCell>
        <mxCell id="WNrmMFyE6qLZgUk3I4w_-81" style="edgeStyle=orthogonalEdgeStyle;rounded=0;orthogonalLoop=1;jettySize=auto;html=1;entryX=0;entryY=0.25;entryDx=0;entryDy=0;entryPerimeter=0;fillColor=#f8cecc;strokeColor=#b85450;" parent="1" source="WNrmMFyE6qLZgUk3I4w_-67" target="WNrmMFyE6qLZgUk3I4w_-78" edge="1">
          <mxGeometry relative="1" as="geometry" />
        </mxCell>
        <mxCell id="WNrmMFyE6qLZgUk3I4w_-82" value="Error" style="edgeLabel;html=1;align=center;verticalAlign=middle;resizable=0;points=[];" parent="WNrmMFyE6qLZgUk3I4w_-81" vertex="1" connectable="0">
          <mxGeometry x="0.4977" y="1" relative="1" as="geometry">
            <mxPoint as="offset" />
          </mxGeometry>
        </mxCell>
        <mxCell id="WNrmMFyE6qLZgUk3I4w_-83" value="soil data" style="sketch=0;points=[[0,0,0],[0.25,0,0],[0.5,0,0],[0.75,0,0],[1,0,0],[0,1,0],[0.25,1,0],[0.5,1,0],[0.75,1,0],[1,1,0],[0,0.25,0],[0,0.5,0],[0,0.75,0],[1,0.25,0],[1,0.5,0],[1,0.75,0]];outlineConnect=0;fontColor=#232F3E;gradientColor=#4D72F3;gradientDirection=north;fillColor=#3334B9;strokeColor=#ffffff;dashed=0;verticalLabelPosition=bottom;verticalAlign=top;align=center;html=1;fontSize=12;fontStyle=0;aspect=fixed;shape=mxgraph.aws4.resourceIcon;resIcon=mxgraph.aws4.dynamodb;movable=1;resizable=1;rotatable=1;deletable=1;editable=1;locked=0;connectable=1;shadow=0;" parent="1" vertex="1">
          <mxGeometry x="1220" y="404.5" width="47.25" height="47.25" as="geometry" />
        </mxCell>
        <mxCell id="WNrmMFyE6qLZgUk3I4w_-137" value="Table" style="shape=table;startSize=30;container=1;collapsible=1;childLayout=tableLayout;fixedRows=1;rowLines=0;fontStyle=1;align=center;resizeLast=1;html=1;movable=1;resizable=1;rotatable=1;deletable=1;editable=1;locked=0;connectable=1;shadow=0;" parent="1" vertex="1">
          <mxGeometry x="1287.25" y="434.5" width="180" height="150" as="geometry" />
        </mxCell>
        <mxCell id="WNrmMFyE6qLZgUk3I4w_-138" value="" style="shape=tableRow;horizontal=0;startSize=0;swimlaneHead=0;swimlaneBody=0;fillColor=none;collapsible=0;dropTarget=0;points=[[0,0.5],[1,0.5]];portConstraint=eastwest;top=0;left=0;right=0;bottom=1;movable=1;resizable=1;rotatable=1;deletable=1;editable=1;locked=0;connectable=1;shadow=0;html=1;" parent="WNrmMFyE6qLZgUk3I4w_-137" vertex="1">
          <mxGeometry y="30" width="180" height="30" as="geometry" />
        </mxCell>
        <mxCell id="WNrmMFyE6qLZgUk3I4w_-139" value="PK" style="shape=partialRectangle;connectable=1;fillColor=none;top=0;left=0;bottom=0;right=0;fontStyle=1;overflow=hidden;whiteSpace=wrap;html=1;movable=1;resizable=1;rotatable=1;deletable=1;editable=1;locked=0;shadow=0;" parent="WNrmMFyE6qLZgUk3I4w_-138" vertex="1">
          <mxGeometry width="30" height="30" as="geometry">
            <mxRectangle width="30" height="30" as="alternateBounds" />
          </mxGeometry>
        </mxCell>
        <mxCell id="WNrmMFyE6qLZgUk3I4w_-140" value="user_id" style="shape=partialRectangle;connectable=1;fillColor=none;top=0;left=0;bottom=0;right=0;align=left;spacingLeft=6;fontStyle=5;overflow=hidden;whiteSpace=wrap;html=1;movable=1;resizable=1;rotatable=1;deletable=1;editable=1;locked=0;shadow=0;" parent="WNrmMFyE6qLZgUk3I4w_-138" vertex="1">
          <mxGeometry x="30" width="150" height="30" as="geometry">
            <mxRectangle width="150" height="30" as="alternateBounds" />
          </mxGeometry>
        </mxCell>
        <mxCell id="WNrmMFyE6qLZgUk3I4w_-141" value="" style="shape=tableRow;horizontal=0;startSize=0;swimlaneHead=0;swimlaneBody=0;fillColor=none;collapsible=0;dropTarget=0;points=[[0,0.5],[1,0.5]];portConstraint=eastwest;top=0;left=0;right=0;bottom=0;movable=1;resizable=1;rotatable=1;deletable=1;editable=1;locked=0;connectable=1;shadow=0;html=1;" parent="WNrmMFyE6qLZgUk3I4w_-137" vertex="1">
          <mxGeometry y="60" width="180" height="30" as="geometry" />
        </mxCell>
        <mxCell id="WNrmMFyE6qLZgUk3I4w_-142" value="" style="shape=partialRectangle;connectable=1;fillColor=none;top=0;left=0;bottom=0;right=0;editable=1;overflow=hidden;whiteSpace=wrap;html=1;movable=1;resizable=1;rotatable=1;deletable=1;locked=0;shadow=0;" parent="WNrmMFyE6qLZgUk3I4w_-141" vertex="1">
          <mxGeometry width="30" height="30" as="geometry">
            <mxRectangle width="30" height="30" as="alternateBounds" />
          </mxGeometry>
        </mxCell>
        <mxCell id="WNrmMFyE6qLZgUk3I4w_-143" value="water level" style="shape=partialRectangle;connectable=1;fillColor=none;top=0;left=0;bottom=0;right=0;align=left;spacingLeft=6;overflow=hidden;whiteSpace=wrap;html=1;movable=1;resizable=1;rotatable=1;deletable=1;editable=1;locked=0;shadow=0;" parent="WNrmMFyE6qLZgUk3I4w_-141" vertex="1">
          <mxGeometry x="30" width="150" height="30" as="geometry">
            <mxRectangle width="150" height="30" as="alternateBounds" />
          </mxGeometry>
        </mxCell>
        <mxCell id="WNrmMFyE6qLZgUk3I4w_-144" value="" style="shape=tableRow;horizontal=0;startSize=0;swimlaneHead=0;swimlaneBody=0;fillColor=none;collapsible=0;dropTarget=0;points=[[0,0.5],[1,0.5]];portConstraint=eastwest;top=0;left=0;right=0;bottom=0;movable=1;resizable=1;rotatable=1;deletable=1;editable=1;locked=0;connectable=1;shadow=0;html=1;" parent="WNrmMFyE6qLZgUk3I4w_-137" vertex="1">
          <mxGeometry y="90" width="180" height="30" as="geometry" />
        </mxCell>
        <mxCell id="WNrmMFyE6qLZgUk3I4w_-145" value="" style="shape=partialRectangle;connectable=1;fillColor=none;top=0;left=0;bottom=0;right=0;editable=1;overflow=hidden;whiteSpace=wrap;html=1;movable=1;resizable=1;rotatable=1;deletable=1;locked=0;shadow=0;" parent="WNrmMFyE6qLZgUk3I4w_-144" vertex="1">
          <mxGeometry width="30" height="30" as="geometry">
            <mxRectangle width="30" height="30" as="alternateBounds" />
          </mxGeometry>
        </mxCell>
        <mxCell id="WNrmMFyE6qLZgUk3I4w_-146" value="nutrient level json{}" style="shape=partialRectangle;connectable=1;fillColor=none;top=0;left=0;bottom=0;right=0;align=left;spacingLeft=6;overflow=hidden;whiteSpace=wrap;html=1;movable=1;resizable=1;rotatable=1;deletable=1;editable=1;locked=0;shadow=0;" parent="WNrmMFyE6qLZgUk3I4w_-144" vertex="1">
          <mxGeometry x="30" width="150" height="30" as="geometry">
            <mxRectangle width="150" height="30" as="alternateBounds" />
          </mxGeometry>
        </mxCell>
        <mxCell id="WNrmMFyE6qLZgUk3I4w_-147" value="" style="shape=tableRow;horizontal=0;startSize=0;swimlaneHead=0;swimlaneBody=0;fillColor=none;collapsible=0;dropTarget=0;points=[[0,0.5],[1,0.5]];portConstraint=eastwest;top=0;left=0;right=0;bottom=0;movable=1;resizable=1;rotatable=1;deletable=1;editable=1;locked=0;connectable=1;shadow=0;html=1;" parent="WNrmMFyE6qLZgUk3I4w_-137" vertex="1">
          <mxGeometry y="120" width="180" height="30" as="geometry" />
        </mxCell>
        <mxCell id="WNrmMFyE6qLZgUk3I4w_-148" value="" style="shape=partialRectangle;connectable=1;fillColor=none;top=0;left=0;bottom=0;right=0;editable=1;overflow=hidden;whiteSpace=wrap;html=1;movable=1;resizable=1;rotatable=1;deletable=1;locked=0;shadow=0;" parent="WNrmMFyE6qLZgUk3I4w_-147" vertex="1">
          <mxGeometry width="30" height="30" as="geometry">
            <mxRectangle width="30" height="30" as="alternateBounds" />
          </mxGeometry>
        </mxCell>
        <mxCell id="WNrmMFyE6qLZgUk3I4w_-149" value="" style="shape=partialRectangle;connectable=1;fillColor=none;top=0;left=0;bottom=0;right=0;align=left;spacingLeft=6;overflow=hidden;whiteSpace=wrap;html=1;movable=1;resizable=1;rotatable=1;deletable=1;editable=1;locked=0;shadow=0;" parent="WNrmMFyE6qLZgUk3I4w_-147" vertex="1">
          <mxGeometry x="30" width="150" height="30" as="geometry">
            <mxRectangle width="150" height="30" as="alternateBounds" />
          </mxGeometry>
        </mxCell>
        <mxCell id="WNrmMFyE6qLZgUk3I4w_-151" value="&lt;font color=&quot;#cc0066&quot;&gt;optional&lt;/font&gt;" style="text;html=1;align=center;verticalAlign=middle;resizable=1;points=[];autosize=1;strokeColor=none;fillColor=none;movable=1;rotatable=1;deletable=1;editable=1;locked=0;connectable=1;shadow=0;" parent="1" vertex="1">
          <mxGeometry x="1267.25" y="362.5" width="70" height="30" as="geometry" />
        </mxCell>
        <mxCell id="WNrmMFyE6qLZgUk3I4w_-154" value="" style="group;shadow=1;html=1;" parent="1" vertex="1" connectable="0">
          <mxGeometry x="30" y="320" width="540" height="308.75" as="geometry" />
        </mxCell>
        <mxCell id="WNrmMFyE6qLZgUk3I4w_-152" value="" style="rounded=0;whiteSpace=wrap;html=1;fillColor=default;glass=0;dashed=1;dashPattern=1 4;movable=1;resizable=1;rotatable=1;deletable=1;editable=1;locked=0;connectable=1;container=0;" parent="WNrmMFyE6qLZgUk3I4w_-154" vertex="1">
          <mxGeometry width="540" height="308.75" as="geometry" />
        </mxCell>
        <mxCell id="D6vviC0zTcl00wqRqJip-29" value="API gateway" style="sketch=0;points=[[0,0,0],[0.25,0,0],[0.5,0,0],[0.75,0,0],[1,0,0],[0,1,0],[0.25,1,0],[0.5,1,0],[0.75,1,0],[1,1,0],[0,0.25,0],[0,0.5,0],[0,0.75,0],[1,0.25,0],[1,0.5,0],[1,0.75,0]];outlineConnect=0;fontColor=#232F3E;gradientColor=#FF4F8B;gradientDirection=north;fillColor=#BC1356;strokeColor=#ffffff;dashed=0;verticalLabelPosition=bottom;verticalAlign=top;align=center;html=1;fontSize=12;fontStyle=0;aspect=fixed;shape=mxgraph.aws4.resourceIcon;resIcon=mxgraph.aws4.api_gateway;movable=1;resizable=1;rotatable=1;deletable=1;editable=1;locked=0;connectable=1;container=0;" parent="WNrmMFyE6qLZgUk3I4w_-154" vertex="1">
          <mxGeometry x="130" y="98.75" width="90" height="90" as="geometry" />
        </mxCell>
        <mxCell id="D6vviC0zTcl00wqRqJip-30" value="" style="endArrow=classic;html=1;rounded=0;entryX=0.002;entryY=0.417;entryDx=0;entryDy=0;entryPerimeter=0;movable=1;resizable=1;rotatable=1;deletable=1;editable=1;locked=0;connectable=1;" parent="WNrmMFyE6qLZgUk3I4w_-154" target="D6vviC0zTcl00wqRqJip-29" edge="1">
          <mxGeometry width="50" height="50" relative="1" as="geometry">
            <mxPoint x="40" y="138.75" as="sourcePoint" />
            <mxPoint x="130" y="158.75" as="targetPoint" />
          </mxGeometry>
        </mxCell>
        <mxCell id="D6vviC0zTcl00wqRqJip-31" value="/app/upload" style="edgeLabel;html=1;align=center;verticalAlign=middle;resizable=1;points=[];movable=1;rotatable=1;deletable=1;editable=1;locked=0;connectable=1;container=0;" parent="D6vviC0zTcl00wqRqJip-30" vertex="1" connectable="0">
          <mxGeometry x="-0.2321" y="1" relative="1" as="geometry">
            <mxPoint as="offset" />
          </mxGeometry>
        </mxCell>
        <mxCell id="D6vviC0zTcl00wqRqJip-32" value="" style="endArrow=classic;html=1;rounded=0;entryX=0;entryY=0.111;entryDx=0;entryDy=0;entryPerimeter=0;movable=1;resizable=1;rotatable=1;deletable=1;editable=1;locked=0;connectable=1;" parent="WNrmMFyE6qLZgUk3I4w_-154" target="D6vviC0zTcl00wqRqJip-29" edge="1">
          <mxGeometry width="50" height="50" relative="1" as="geometry">
            <mxPoint x="40" y="108.75" as="sourcePoint" />
            <mxPoint x="90" y="88.75" as="targetPoint" />
          </mxGeometry>
        </mxCell>
        <mxCell id="D6vviC0zTcl00wqRqJip-33" value="/login&lt;br&gt;or&lt;br&gt;/signup" style="edgeLabel;html=1;align=center;verticalAlign=middle;resizable=1;points=[];movable=1;rotatable=1;deletable=1;editable=1;locked=0;connectable=1;container=0;" parent="D6vviC0zTcl00wqRqJip-32" vertex="1" connectable="0">
          <mxGeometry x="-0.2479" y="1" relative="1" as="geometry">
            <mxPoint as="offset" />
          </mxGeometry>
        </mxCell>
        <mxCell id="D6vviC0zTcl00wqRqJip-34" value="" style="endArrow=classic;html=1;rounded=0;entryX=0;entryY=0.75;entryDx=0;entryDy=0;entryPerimeter=0;movable=1;resizable=1;rotatable=1;deletable=1;editable=1;locked=0;connectable=1;" parent="WNrmMFyE6qLZgUk3I4w_-154" target="D6vviC0zTcl00wqRqJip-29" edge="1">
          <mxGeometry width="50" height="50" relative="1" as="geometry">
            <mxPoint x="40" y="168.75" as="sourcePoint" />
            <mxPoint x="70" y="138.75" as="targetPoint" />
          </mxGeometry>
        </mxCell>
        <mxCell id="D6vviC0zTcl00wqRqJip-35" value="/app/live" style="edgeLabel;html=1;align=center;verticalAlign=middle;resizable=1;points=[];movable=1;rotatable=1;deletable=1;editable=1;locked=0;connectable=1;container=0;" parent="D6vviC0zTcl00wqRqJip-34" vertex="1" connectable="0">
          <mxGeometry x="-0.5109" relative="1" as="geometry">
            <mxPoint x="8" as="offset" />
          </mxGeometry>
        </mxCell>
        <mxCell id="D6vviC0zTcl00wqRqJip-38" value="" style="strokeWidth=2;html=1;shape=mxgraph.flowchart.annotation_2;align=left;labelPosition=right;pointerEvents=1;movable=1;resizable=1;rotatable=1;deletable=1;editable=1;locked=0;connectable=1;container=0;" parent="WNrmMFyE6qLZgUk3I4w_-154" vertex="1">
          <mxGeometry x="220" y="93.75" width="50" height="135" as="geometry" />
        </mxCell>
        <mxCell id="D6vviC0zTcl00wqRqJip-39" value="" style="rounded=0;whiteSpace=wrap;html=1;fillColor=#333333;movable=1;resizable=1;rotatable=1;deletable=1;editable=1;locked=0;connectable=1;container=0;" parent="WNrmMFyE6qLZgUk3I4w_-154" vertex="1">
          <mxGeometry x="270" y="78.75" width="40" height="30" as="geometry" />
        </mxCell>
        <mxCell id="D6vviC0zTcl00wqRqJip-40" value="" style="rounded=0;whiteSpace=wrap;html=1;fillColor=#333333;movable=1;resizable=1;rotatable=1;deletable=1;editable=1;locked=0;connectable=1;container=0;" parent="WNrmMFyE6qLZgUk3I4w_-154" vertex="1">
          <mxGeometry x="270" y="208.75" width="40" height="30" as="geometry" />
        </mxCell>
        <mxCell id="D6vviC0zTcl00wqRqJip-59" value="" style="endArrow=none;html=1;rounded=0;exitX=0.496;exitY=0.338;exitDx=0;exitDy=0;exitPerimeter=0;strokeWidth=2;entryX=1.007;entryY=0.34;entryDx=0;entryDy=0;entryPerimeter=0;movable=1;resizable=1;rotatable=1;deletable=1;editable=1;locked=0;connectable=1;" parent="WNrmMFyE6qLZgUk3I4w_-154" source="D6vviC0zTcl00wqRqJip-38" target="D6vviC0zTcl00wqRqJip-38" edge="1">
          <mxGeometry width="50" height="50" relative="1" as="geometry">
            <mxPoint x="250" y="138.75" as="sourcePoint" />
            <mxPoint x="270" y="138.75" as="targetPoint" />
          </mxGeometry>
        </mxCell>
        <mxCell id="D6vviC0zTcl00wqRqJip-60" value="" style="rounded=0;whiteSpace=wrap;html=1;fillColor=#333333;movable=1;resizable=1;rotatable=1;deletable=1;editable=1;locked=0;connectable=1;container=0;" parent="WNrmMFyE6qLZgUk3I4w_-154" vertex="1">
          <mxGeometry x="270" y="123.75" width="40" height="25" as="geometry" />
        </mxCell>
        <mxCell id="D6vviC0zTcl00wqRqJip-62" value="" style="endArrow=none;html=1;rounded=0;exitX=0.496;exitY=0.338;exitDx=0;exitDy=0;exitPerimeter=0;strokeWidth=2;entryX=1.007;entryY=0.34;entryDx=0;entryDy=0;entryPerimeter=0;movable=1;resizable=1;rotatable=1;deletable=1;editable=1;locked=0;connectable=1;" parent="WNrmMFyE6qLZgUk3I4w_-154" edge="1">
          <mxGeometry width="50" height="50" relative="1" as="geometry">
            <mxPoint x="245" y="179.75" as="sourcePoint" />
            <mxPoint x="270" y="179.75" as="targetPoint" />
          </mxGeometry>
        </mxCell>
        <mxCell id="D6vviC0zTcl00wqRqJip-63" value="" style="rounded=0;whiteSpace=wrap;html=1;fillColor=#333333;movable=1;resizable=1;rotatable=1;deletable=1;editable=1;locked=0;connectable=1;container=0;" parent="WNrmMFyE6qLZgUk3I4w_-154" vertex="1">
          <mxGeometry x="270" y="163.75" width="40" height="25" as="geometry" />
        </mxCell>
        <mxCell id="D6vviC0zTcl00wqRqJip-64" value="&lt;font style=&quot;font-size: 12px;&quot;&gt;/login&lt;/font&gt;" style="text;html=1;strokeColor=none;fillColor=none;align=center;verticalAlign=middle;whiteSpace=wrap;rounded=0;movable=1;resizable=1;rotatable=1;deletable=1;editable=1;locked=0;connectable=1;container=0;" parent="WNrmMFyE6qLZgUk3I4w_-154" vertex="1">
          <mxGeometry x="314" y="78.75" width="60" height="30" as="geometry" />
        </mxCell>
        <mxCell id="D6vviC0zTcl00wqRqJip-65" value="/app/upload" style="text;html=1;strokeColor=none;fillColor=none;align=center;verticalAlign=middle;whiteSpace=wrap;rounded=0;movable=1;resizable=1;rotatable=1;deletable=1;editable=1;locked=0;connectable=1;container=0;" parent="WNrmMFyE6qLZgUk3I4w_-154" vertex="1">
          <mxGeometry x="330" y="123.75" width="60" height="30" as="geometry" />
        </mxCell>
        <mxCell id="D6vviC0zTcl00wqRqJip-66" value="/app/live" style="text;html=1;strokeColor=none;fillColor=none;align=center;verticalAlign=middle;whiteSpace=wrap;rounded=0;movable=1;resizable=1;rotatable=1;deletable=1;editable=1;locked=0;connectable=1;container=0;" parent="WNrmMFyE6qLZgUk3I4w_-154" vertex="1">
          <mxGeometry x="320" y="158.75" width="60" height="30" as="geometry" />
        </mxCell>
        <mxCell id="D6vviC0zTcl00wqRqJip-67" value="/app/get-pred" style="text;html=1;strokeColor=none;fillColor=none;align=center;verticalAlign=middle;whiteSpace=wrap;rounded=0;movable=1;resizable=1;rotatable=1;deletable=1;editable=1;locked=0;connectable=1;container=0;" parent="WNrmMFyE6qLZgUk3I4w_-154" vertex="1">
          <mxGeometry x="324" y="208.75" width="80" height="30" as="geometry" />
        </mxCell>
        <mxCell id="D6vviC0zTcl00wqRqJip-68" value="" style="image;sketch=0;aspect=fixed;html=1;points=[];align=center;fontSize=12;image=img/lib/mscae/Key.svg;movable=1;resizable=1;rotatable=1;deletable=1;editable=1;locked=0;connectable=1;container=0;" parent="WNrmMFyE6qLZgUk3I4w_-154" vertex="1">
          <mxGeometry x="17.600000000000023" y="98.75" width="12.4" height="20" as="geometry" />
        </mxCell>
        <mxCell id="D6vviC0zTcl00wqRqJip-72" value="" style="sketch=0;pointerEvents=1;shadow=0;dashed=0;html=1;strokeColor=none;fillColor=#505050;labelPosition=center;verticalLabelPosition=bottom;verticalAlign=top;outlineConnect=0;align=center;shape=mxgraph.office.security.token;movable=1;resizable=1;rotatable=1;deletable=1;editable=1;locked=0;connectable=1;container=0;" parent="WNrmMFyE6qLZgUk3I4w_-154" vertex="1">
          <mxGeometry x="418.32000000000005" y="213.75" width="15.68" height="20" as="geometry" />
        </mxCell>
        <mxCell id="D6vviC0zTcl00wqRqJip-73" value="" style="sketch=0;pointerEvents=1;shadow=0;dashed=0;html=1;strokeColor=none;fillColor=#505050;labelPosition=center;verticalLabelPosition=bottom;verticalAlign=top;outlineConnect=0;align=center;shape=mxgraph.office.security.token;movable=1;resizable=1;rotatable=1;deletable=1;editable=1;locked=0;connectable=1;container=0;" parent="WNrmMFyE6qLZgUk3I4w_-154" vertex="1">
          <mxGeometry x="390.00000000000006" y="166.25" width="15.68" height="20" as="geometry" />
        </mxCell>
        <mxCell id="D6vviC0zTcl00wqRqJip-74" value="" style="sketch=0;pointerEvents=1;shadow=0;dashed=0;html=1;strokeColor=none;fillColor=#505050;labelPosition=center;verticalLabelPosition=bottom;verticalAlign=top;outlineConnect=0;align=center;shape=mxgraph.office.security.token;movable=1;resizable=1;rotatable=1;deletable=1;editable=1;locked=0;connectable=1;container=0;" parent="WNrmMFyE6qLZgUk3I4w_-154" vertex="1">
          <mxGeometry x="404.00000000000006" y="123.75" width="15.68" height="20" as="geometry" />
        </mxCell>
        <mxCell id="D6vviC0zTcl00wqRqJip-76" value="" style="verticalLabelPosition=bottom;verticalAlign=top;html=1;shape=card;whiteSpace=wrap;size=20;arcSize=12;fillColor=#ffe6cc;strokeColor=#d79b00;movable=1;resizable=1;rotatable=1;deletable=1;editable=1;locked=0;connectable=1;container=0;" parent="WNrmMFyE6qLZgUk3I4w_-154" vertex="1">
          <mxGeometry x="450" y="33.75" width="70" height="80" as="geometry" />
        </mxCell>
        <mxCell id="D6vviC0zTcl00wqRqJip-78" value="/app/** requires token access" style="text;html=1;strokeColor=none;fillColor=none;align=left;verticalAlign=middle;whiteSpace=wrap;rounded=0;movable=1;resizable=1;rotatable=1;deletable=1;editable=1;locked=0;connectable=1;container=0;" parent="WNrmMFyE6qLZgUk3I4w_-154" vertex="1">
          <mxGeometry x="465" y="23.75" width="60" height="100" as="geometry" />
        </mxCell>
        <mxCell id="WNrmMFyE6qLZgUk3I4w_-19" value="TBD" style="text;html=1;strokeColor=#b85450;fillColor=#f8cecc;align=center;verticalAlign=middle;whiteSpace=wrap;rounded=0;movable=1;resizable=1;rotatable=1;deletable=1;editable=1;locked=0;connectable=1;container=0;" parent="WNrmMFyE6qLZgUk3I4w_-154" vertex="1">
          <mxGeometry x="418.32" y="161.25" width="60" height="30" as="geometry" />
        </mxCell>
        <mxCell id="WNrmMFyE6qLZgUk3I4w_-155" value="SQL" style="text;html=1;strokeColor=none;fillColor=none;align=center;verticalAlign=middle;whiteSpace=wrap;rounded=0;movable=1;resizable=1;rotatable=1;deletable=1;editable=1;locked=0;connectable=1;shadow=0;" parent="1" vertex="1">
          <mxGeometry x="892.75" y="570" width="60" height="30" as="geometry" />
        </mxCell>
        <mxCell id="WNrmMFyE6qLZgUk3I4w_-156" value="NoSQL" style="text;html=1;strokeColor=none;fillColor=none;align=center;verticalAlign=middle;whiteSpace=wrap;rounded=0;movable=1;resizable=1;rotatable=1;deletable=1;editable=1;locked=0;connectable=1;shadow=0;" parent="1" vertex="1">
          <mxGeometry x="1500" y="494.5" width="60" height="30" as="geometry" />
        </mxCell>
        <mxCell id="WNrmMFyE6qLZgUk3I4w_-163" value="&lt;h1&gt;&lt;span style=&quot;font-size: 45px;&quot;&gt;Crop yield monitor design doc&lt;/span&gt;&lt;/h1&gt;" style="text;html=1;strokeColor=none;fillColor=none;align=center;verticalAlign=middle;whiteSpace=wrap;rounded=0;" parent="1" vertex="1">
          <mxGeometry x="600" y="70" width="465" height="180" as="geometry" />
        </mxCell>
        <UserObject label="%date{ddd mmm dd yyyy HH:MM:ss}%" placeholders="1" id="WNrmMFyE6qLZgUk3I4w_-164">
          <mxCell style="text;html=1;strokeColor=#6c8ebf;fillColor=#dae8fc;align=center;verticalAlign=middle;whiteSpace=wrap;overflow=hidden;" parent="1" vertex="1">
            <mxGeometry x="1146.71" y="190" width="160" height="20" as="geometry" />
          </mxCell>
        </UserObject>
        <mxCell id="WNrmMFyE6qLZgUk3I4w_-165" value="©&amp;nbsp;@DipankarDas011" style="text;html=1;strokeColor=#6c8ebf;fillColor=#dae8fc;align=center;verticalAlign=middle;whiteSpace=wrap;rounded=0;" parent="1" vertex="1">
          <mxGeometry x="288" y="210" width="162" height="30" as="geometry" />
        </mxCell>
      </root>
    </mxGraphModel>
  </diagram>
</mxfile>
